%YAML 1.1
%TAG !u! tag:unity3d.com,2011:
--- !u!1045 &1
EditorBuildSettings:
  m_ObjectHideFlags: 0
  serializedVersion: 2
  m_Scenes:
  - enabled: 0
    path: Assets/Scenes/SampleScene.unity
    guid: 2cda990e2423bbf4892e6590ba056729
  - enabled: 1
    path: Assets/Scenes/Start Menu.unity
    guid: 1f638f88862f8b54087cd819e939d602
  - enabled: 1
    path: Assets/Scenes/Core Game.unity
    guid: 42e21e452e74ef5449efa78b0aad08ed
  - enabled: 1
    path: Assets/Scenes/Play Again.unity
    guid: 8393a24dcf9152f4694ab24c21aaeff2
  m_configObjects: {}
